// Jest Snapshot v1, https://goo.gl/fbAQLP

exports[`# Layout 1`] = `
<Unknown>
  <Unknown
    user={
      Object {
        "_id": "test_user_id",
        "username": "test",
      }
    }
  />
  <div
    className="container"
    style={
      Object {
        "marginTop": 20,
      }
    }
  >
    <Post
      hideComments={true}
      postId="1"
      user={
        Object {
          "_id": "test_user_id",
          "username": "test",
        }
      }
    />
    <br />
    Комментарии:
    <Comments
      postId="1"
      user={
        Object {
          "_id": "test_user_id",
          "username": "test",
        }
      }
    />
    <br />
    <_class
      collapsedPrompt="Написать новый комментарий!"
      prompt="Новый комментарий.."
      submit={[Function]}
    />
  </div>
</Unknown>
`;
