// Jest Snapshot v1, https://goo.gl/fbAQLP

exports[`# Comments 1`] = `
<div>
  <div
    className="card"
    style={
      Object {
        "boxShadow": "none",
      }
    }
  >
    <div
      className="card-content content"
    >
      <div
        dangerouslySetInnerHTML={
          Object {
            "__html": "<p>Test comment</p>
          ",
          }
        }
      />
      <br />
      <small>
        Написал
         
        Test user
         
        2017-2-1
         
        в
         
        00:00:00
         
        <a
          href="#reply"
          onClick={[Function]}
        >
          Ответить
        </a>
      </small>
       
      <button
        className="button is-small is-inverted is-info"
        disabled={false}
        onClick={[Function]}
      >
        <span
          className="icon is-small"
        >
          <i
            className="fa fa-plus"
          />
        </span>
      </button>
       
      <button
        className="button is-small is-inverted is-info"
        disabled={false}
        onClick={[Function]}
      >
        <span
          className="icon is-small"
        >
          <i
            className="fa fa-minus"
          />
        </span>
      </button>
       
      <span
        className="tag is-light"
      >
        0
      </span>
    </div>
  </div>
</div>
`;
