// Jest Snapshot v1, https://goo.gl/fbAQLP

exports[`# Post 1`] = `
<div
  className="card"
  style={
    Object {
      "marginTop": 20,
    }
  }
>
  <div
    className="card-content content"
  >
    <div
      dangerouslySetInnerHTML={
        Object {
          "__html": "<p>Tets post</p>
        ",
        }
      }
    />
    <br />
    <small>
      Написал
       
      Test user
       
      2017-2-1
       
      в
       
      00:00:00
       
      <a
        href="/posts/test_post"
      >
        Комментарии
      </a>
    </small>
     
    <button
      className="button is-small is-inverted is-info"
      disabled={false}
      onClick={[Function]}
    >
      <span
        className="icon is-small"
      >
        <i
          className="fa fa-plus"
        />
      </span>
    </button>
     
    <button
      className="button is-small is-inverted is-info"
      disabled={false}
      onClick={[Function]}
    >
      <span
        className="icon is-small"
      >
        <i
          className="fa fa-minus"
        />
      </span>
    </button>
     
    <span
      className="tag is-light"
    >
      0
    </span>
  </div>
</div>
`;
